﻿[
  {
    "name": "Bob",
    "gender": "Male",
    "age": 23,
    "pets": [
      {
        "name": "",
        "type": "Cat"
      },
      {
        "name": "Fido",
        "type": "Cat"
      },
      {
        "name": null,
        "type": "Cat"
      },
      {
        "name": "Garfield",
        "type": "Cat"
      }
    ]
  }]