﻿[
  {
    "name": "Bob",
    "gender": "Male",
    "age": 23,
    "pets": null
  },
  {
    "name": "Jennifer",
    "gender": "Female",
    "age": 18,
    "pets": [
      {
        "name": "Garfield",
        "type": "Cat"
      }
    ]
  }
]