﻿[
  {
    "name": "Alice",
    "gender": null,
    "age": 64,
    "pets": [
      {
        "name": "Simba",
        "type": "Cat"
      },
      {
        "name": "Nemo",
        "type": "Cat"
      }
    ]
  },
  {
    "name": "Alice",
    "gender": "",
    "age": 64,
    "pets": [
      {
        "name": "Simba",
        "type": "Cat"
      },
      {
        "name": "Nemo",
        "type": "Cat"
      }
    ]
  },
  {
    "name": "Jennifer",
    "gender": "Female",
    "age": 18,
    "pets": [
      {
        "name": "Garfield",
        "type": "Cat"
      }
    ]
  }
]